{
    "name": "blueprint-compiler",
    "buildsystem": "meson",
    "cleanup": [ "*" ],
    "sources": [
        {
      	    "type": "git",
      	    "url": "https://gitlab.gnome.org/jwestman/blueprint-compiler",
      	    "tag": "v0.10.0",
      	    "commit": "2a39a16391122af2f3d812e478c1c1398c98b972"
	}
    ]
}
